About – TS
…
# Visualizar resultado
print(weather_data)

# A tibble: 38,553 × 21
   id    wd90                study location   state year  planting_date mean_sev
   <chr> <dttm>              <chr> <chr>      <chr> <chr> <date>           <dbl>
 1 1     2012-07-20 00:00:00 1     Campo Ver… MT    2012  2012-10-18         0.4
 2 1     2012-07-21 00:00:00 1     Campo Ver… MT    2012  2012-10-18         0.4
 3 1     2012-07-22 00:00:00 1     Campo Ver… MT    2012  2012-10-18         0.4
 4 1     2012-07-23 00:00:00 1     Campo Ver… MT    2012  2012-10-18         0.4
 5 1     2012-07-24 00:00:00 1     Campo Ver… MT    2012  2012-10-18         0.4
 6 1     2012-07-25 00:00:00 1     Campo Ver… MT    2012  2012-10-18         0.4
 7 1     2012-07-26 00:00:00 1     Campo Ver… MT    2012  2012-10-18         0.4
 8 1     2012-07-27 00:00:00 1     Campo Ver… MT    2012  2012-10-18         0.4
 9 1     2012-07-28 00:00:00 1     Campo Ver… MT    2012  2012-10-18         0.4
10 1     2012-07-29 00:00:00 1     Campo Ver… MT    2012  2012-10-18         0.4
# ℹ 38,543 more rows
# ℹ 13 more variables: lat <dbl>, lon <dbl>, level <chr>, days <dbl>,
#   RH2M <dbl>, T2M_MAX <dbl>, T2M_MIN <dbl>, PRECTOTCORR <dbl>, T2M <dbl>,
#   Td <dbl>, DPD <dbl>, allowed_date <date>, days_difference <dbl>

weather_data$year1 <- as.numeric(factor(weather_data$year))
weather_data$state1 <- as.numeric(factor(weather_data$state))
weather_data$location1 <- as.numeric(factor(weather_data$location))
weather_data$level1 <- as.numeric(factor(weather_data$level))

weather_data %>% 
  filter(days_difference < 0)

# A tibble: 543 × 25
   id    wd90                study location state year  planting_date mean_sev
   <chr> <dttm>              <chr> <chr>    <chr> <chr> <date>           <dbl>
 1 76    2014-06-10 00:00:00 8     Palmeira PR    2014  2014-09-08       0.104
 2 76    2014-06-11 00:00:00 8     Palmeira PR    2014  2014-09-08       0.104
 3 76    2014-06-12 00:00:00 8     Palmeira PR    2014  2014-09-08       0.104
 4 76    2014-06-13 00:00:00 8     Palmeira PR    2014  2014-09-08       0.104
 5 76    2014-06-14 00:00:00 8     Palmeira PR    2014  2014-09-08       0.104
 6 76    2014-06-15 00:00:00 8     Palmeira PR    2014  2014-09-08       0.104
 7 76    2014-06-16 00:00:00 8     Palmeira PR    2014  2014-09-08       0.104
 8 76    2014-06-17 00:00:00 8     Palmeira PR    2014  2014-09-08       0.104
 9 76    2014-06-18 00:00:00 8     Palmeira PR    2014  2014-09-08       0.104
10 76    2014-06-19 00:00:00 8     Palmeira PR    2014  2014-09-08       0.104
# ℹ 533 more rows
# ℹ 17 more variables: lat <dbl>, lon <dbl>, level <chr>, days <dbl>,
#   RH2M <dbl>, T2M_MAX <dbl>, T2M_MIN <dbl>, PRECTOTCORR <dbl>, T2M <dbl>,
#   Td <dbl>, DPD <dbl>, allowed_date <date>, days_difference <dbl>,
#   year1 <dbl>, state1 <dbl>, location1 <dbl>, level1 <dbl>
…
