about – Modeling Target Spot - Weather
…
# Visualizar resultado
print(weather_data)

# A tibble: 38,553 × 21
   id    wd90                study location   state year  planting_date mean_sev
   <chr> <dttm>              <chr> <chr>      <chr> <chr> <date>           <dbl>
 1 1     2012-07-20 00:00:00 1     Campo Ver… MT    2012  2012-10-18         0.4
 2 1     2012-07-21 00:00:00 1     Campo Ver… MT    2012  2012-10-18         0.4
 3 1     2012-07-22 00:00:00 1     Campo Ver… MT    2012  2012-10-18         0.4
 4 1     2012-07-23 00:00:00 1     Campo Ver… MT    2012  2012-10-18         0.4
 5 1     2012-07-24 00:00:00 1     Campo Ver… MT    2012  2012-10-18         0.4
 6 1     2012-07-25 00:00:00 1     Campo Ver… MT    2012  2012-10-18         0.4
 7 1     2012-07-26 00:00:00 1     Campo Ver… MT    2012  2012-10-18         0.4
 8 1     2012-07-27 00:00:00 1     Campo Ver… MT    2012  2012-10-18         0.4
 9 1     2012-07-28 00:00:00 1     Campo Ver… MT    2012  2012-10-18         0.4
10 1     2012-07-29 00:00:00 1     Campo Ver… MT    2012  2012-10-18         0.4
# ℹ 38,543 more rows
# ℹ 13 more variables: lat <dbl>, lon <dbl>, level <chr>, days <dbl>,
#   RH2M <dbl>, T2M_MAX <dbl>, T2M_MIN <dbl>, PRECTOTCORR <dbl>, T2M <dbl>,
#   Td <dbl>, DPD <dbl>, allowed_date <date>, days_difference <dbl>
…
